hardware/arduino/distfiles/trace.vcd
$date today $end
$timescale 1 ns $end
$scope module sig $end
$var integer 1 ! scl $end
$var integer 1 " sda $end
$upscope $end
$enddefinitions $end
#0
$dumpvars
1!
1"
$end
#254000000000000
0"
#254000000000067
0!
#254000000001317
1!
#254000000002567
0!
#254000000003750
1"
#254000000003817
1!
#254000000005067
0!
#254000000006250
0"
#254000000006317
1!
#254000000007567
0!
#254000000008817
1!
#254000000010067
0!
#254000000011317
1!
#254000000012567
0!
#254000000013817
1!
#254000000015067
0!
#254000000016317
1!
#254000000017567
0!
#254000000018817
1!
#254000000020067
0!
#254000000021317
1!
#254000000022567
0!
#254000000023817
1!
#254000000025067
0!
#254000000026250
1"
#254000000026317
1!
#254000000027567
0!
#254000000028817
1!
#254000000030067
0!
#254000000031250
0"
#254000000031317
1!
#254000000032567
0!
#254000000033817
1!
#254000000035067
0!
#254000000036317
1!
#254000000037567
0!
#254000000038750
1"
#254000000038817
1!
#254000000040067
0!
#254000000041250
0"
#254000000041317
1!
#254000000042567
0!
#254000000043817
1!
#254000000045067
0!
#254000000046317
1!
#254000000047567
0!
#254000000048817
1!
#254000000050067
0!
#254000000051317
1!
#254000000052567
0!
#254000000053817
1!
#254000000055067
0!
#254000000056317
1!
#254000000057567
0!
#254000000058817
1!
#254000000060067
0!
#254000000061317
1!
#254000000062567
0!
#254000000063750
1"
#254000000063817
1!
#254000000065067
0!
#254000000066250
0"
#254000000066317
1!
#254000000067567
0!
#254000000068750
1"
#254000000068817
1!
#254000000070692
0"
#254000000070759
0!
#254000000072009
1!
#254000000073259
0!
#254000000074442
1"
#254000000074509
1!
#254000000075759
0!
#254000000076942
0"
#254000000077009
1!
#254000000078259
0!
#254000000079509
1!
#254000000080759
0!
#254000000082009
1!
#254000000083259
0!
#254000000084509
1!
#254000000085759
0!
#254000000087009
1!
#254000000088259
0!
#254000000089442
1"
#254000000089509
1!
#254000000090759
0!
#254000000091942
0"
#254000000092009
1!
#254000000093259
0!
#254000000094509
1!
#254000000095759
0!
#254000000097009
1!
#254000000098259
0!
#254000000099442
1"
#254000000099509
1!
#254000000100759
0!
#254000000102009
1!
#254000000103259
0!
#254000000104442
0"
#254000000104509
1!
#254000000105759
0!
#254000000106942
1"
#254000000107009
1!
#254000000108259
0!
#254000000109509
1!
#254000000110759
0!
#254000000112009
1!
#254000000113259
0!
#254000000114442
0"
#254000000114509
1!
#254000000115759
0!
#254000000119509
1!
#254000000119576
1"
#254000000125445
0"
#254000000125512
0!
#254000000126762
1!
#254000000128012
0!
#254000000129195
1"
#254000000129262
1!
#254000000130512
0!
#254000000131695
0"
#254000000131762
1!
#254000000133012
0!
#254000000134262
1!
#254000000135512
0!
#254000000136762
1!
#254000000138012
0!
#254000000139262
1!
#254000000140512
0!
#254000000141762
1!
#254000000143012
0!
#254000000144262
1!
#254000000145512
0!
#254000000146762
1!
#254000000148012
0!
#254000000149262
1!
#254000000150512
0!
#254000000151695
1"
#254000000151762
1!
#254000000153012
0!
#254000000154262
1!
#254000000155512
0!
#254000000156695
0"
#254000000156762
1!
#254000000158012
0!
#254000000159262
1!
#254000000160512
0!
#254000000161695
1"
#254000000161762
1!
#254000000163012
0!
#254000000164195
0"
#254000000164262
1!
#254000000165512
0!
#254000000166695
1"
#254000000166762
1!
#254000000168012
0!
#254000000169195
0"
#254000000169262
1!
#254000000170512
0!
#254000000171762
1!
#254000000173012
0!
#254000000174262
1!
#254000000175512
0!
#254000000176762
1!
#254000000178012
0!
#254000000179262
1!
#254000000180512
0!
#254000000181762
1!
#254000000183012
0!
#254000000184262
1!
#254000000185512
0!
#254000000186762
1!
#254000000188012
0!
#254000000189195
1"
#254000000189262
1!
#254000000190512
0!
#254000000191695
0"
#254000000191762
1!
#254000000193012
0!
#254000000194195
1"
#254000000194262
1!
#254000000196137
0"
#254000000196204
0!
#254000000197454
1!
#254000000198704
0!
#254000000199887
1"
#254000000199954
1!
#254000000201204
0!
#254000000202387
0"
#254000000202454
1!
#254000000203704
0!
#254000000204954
1!
#254000000206204
0!
#254000000207454
1!
#254000000208704
0!
#254000000209954
1!
#254000000211204
0!
#254000000212454
1!
#254000000213704
0!
#254000000214887
1"
#254000000214954
1!
#254000000216204
0!
#254000000217387
0"
#254000000217454
1!
#254000000218704
0!
#254000000219954
1!
#254000000221204
0!
#254000000222454
1!
#254000000223704
0!
#254000000224954
1!
#254000000226204
0!
#254000000227454
1!
#254000000228704
0!
#254000000229954
1!
#254000000231204
0!
#254000000232387
1"
#254000000232454
1!
#254000000233704
0!
#254000000234954
1!
#254000000236204
0!
#254000000237454
1!
#254000000238704
0!
#254000000239887
0"
#254000000239954
1!
#254000000241204
0!
#254000000244954
1!
#254000000245021
1"
#254000000253838
0"
#254000000253905
0!
#254000000255155
1!
#254000000256405
0!
#254000000257588
1"
#254000000257655
1!
#254000000258905
0!
#254000000260088
0"
#254000000260155
1!
#254000000261405
0!
#254000000262655
1!
#254000000263905
0!
#254000000265155
1!
#254000000266405
0!
#254000000267655
1!
#254000000268905
0!
#254000000270155
1!
#254000000271405
0!
#254000000272655
1!
#254000000273905
0!
#254000000275155
1!
#254000000276405
0!
#254000000277655
1!
#254000000278905
0!
#254000000280088
1"
#254000000280155
1!
#254000000281405
0!
#254000000282655
1!
#254000000283905
0!
#254000000285088
0"
#254000000285155
1!
#254000000286405
0!
#254000000287655
1!
#254000000288905
0!
#254000000290155
1!
#254000000291405
0!
#254000000292588
1"
#254000000292655
1!
#254000000293905
0!
#254000000295155
1!
#254000000296405
0!
#254000000297588
0"
#254000000297655
1!
#254000000298905
0!
#254000000300155
1!
#254000000301405
0!
#254000000302655
1!
#254000000303905
0!
#254000000305155
1!
#254000000306405
0!
#254000000307655
1!
#254000000308905
0!
#254000000310155
1!
#254000000311405
0!
#254000000312655
1!
#254000000313905
0!
#254000000315155
1!
#254000000316405
0!
#254000000317588
1"
#254000000317655
1!
#254000000318905
0!
#254000000320088
0"
#254000000320155
1!
#254000000321405
0!
#254000000322588
1"
#254000000322655
1!
#254000000324530
0"
#254000000324597
0!
#254000000325847
1!
#254000000327097
0!
#254000000328280
1"
#254000000328347
1!
#254000000329597
0!
#254000000330780
0"
#254000000330847
1!
#254000000332097
0!
#254000000333347
1!
#254000000334597
0!
#254000000335847
1!
#254000000337097
0!
#254000000338347
1!
#254000000339597
0!
#254000000340847
1!
#254000000342097
0!
#254000000343280
1"
#254000000343347
1!
#254000000344597
0!
#254000000345780
0"
#254000000345847
1!
#254000000347097
0!
#254000000348347
1!
#254000000349597
0!
#254000000350847
1!
#254000000352097
0!
#254000000353280
1"
#254000000353347
1!
#254000000354597
0!
#254000000355847
1!
#254000000357097
0!
#254000000358280
0"
#254000000358347
1!
#254000000359597
0!
#254000000360780
1"
#254000000360847
1!
#254000000362097
0!
#254000000363347
1!
#254000000364597
0!
#254000000365780
0"
#254000000365847
1!
#254000000367097
0!
#254000000368347
1!
#254000000369597
0!
#254000000373347
1!
#254000000373414
1"
#254000000380398
0"
#254000000380465
0!
#254000000381715
1!
#254000000382965
0!
#254000000384148
1"
#254000000384215
1!
#254000000385465
0!
#254000000386648
0"
#254000000386715
1!
#254000000387965
0!
#254000000389215
1!
#254000000390465
0!
#254000000391715
1!
#254000000392965
0!
#254000000394215
1!
#254000000395465
0!
#254000000396715
1!
#254000000397965
0!
#254000000399215
1!
#254000000400465
0!
#254000000401715
1!
#254000000402965
0!
#254000000404215
1!
#254000000405465
0!
#254000000406648
1"
#254000000406715
1!
#254000000407965
0!
#254000000409215
1!
#254000000410465
0!
#254000000411648
0"
#254000000411715
1!
#254000000412965
0!
#254000000414215
1!
#254000000415465
0!
#254000000416715
1!
#254000000417965
0!
#254000000419215
1!
#254000000420465
0!
#254000000421715
1!
#254000000422965
0!
#254000000424215
1!
#254000000425465
0!
#254000000426715
1!
#254000000427965
0!
#254000000429215
1!
#254000000430465
0!
#254000000431715
1!
#254000000432965
0!
#254000000434215
1!
#254000000435465
0!
#254000000436715
1!
#254000000437965
0!
#254000000439215
1!
#254000000440465
0!
#254000000441715
1!
#254000000442965
0!
#254000000444148
1"
#254000000444215
1!
#254000000445465
0!
#254000000446648
0"
#254000000446715
1!
#254000000447965
0!
#254000000449148
1"
#254000000449215
1!
#254000000451090
0"
#254000000451157
0!
#254000000452407
1!
#254000000453657
0!
#254000000454840
1"
#254000000454907
1!
#254000000456157
0!
#254000000457340
0"
#254000000457407
1!
#254000000458657
0!
#254000000459907
1!
#254000000461157
0!
#254000000462407
1!
#254000000463657
0!
#254000000464907
1!
#254000000466157
0!
#254000000467407
1!
#254000000468657
0!
#254000000469840
1"
#254000000469907
1!
#254000000471157
0!
#254000000472340
0"
#254000000472407
1!
#254000000473657
0!
#254000000474907
1!
#254000000476157
0!
#254000000477407
1!
#254000000478657
0!
#254000000479840
1"
#254000000479907
1!
#254000000481157
0!
#254000000482340
0"
#254000000482407
1!
#254000000483657
0!
#254000000484907
1!
#254000000486157
0!
#254000000487407
1!
#254000000488657
0!
#254000000489907
1!
#254000000491157
0!
#254000000492407
1!
#254000000493657
0!
#254000000494907
1!
#254000000496157
0!
#254000000499907
1!
#254000000499974
1"
#254000000508402
0"
#254000000508469
0!
#254000000509719
1!
#254000000510969
0!
#254000000512152
1"
#254000000512219
1!
#254000000513469
0!
#254000000514652
0"
#254000000514719
1!
#254000000515969
0!
#254000000517219
1!
#254000000518469
0!
#254000000519719
1!
#254000000520969
0!
#254000000522219
1!
#254000000523469
0!
#254000000524719
1!
#254000000525969
0!
#254000000527219
1!
#254000000528469
0!
#254000000529719
1!
#254000000530969
0!
#254000000532219
1!
#254000000533469
0!
#254000000534652
1"
#254000000534719
1!
#254000000535969
0!
#254000000537219
1!
#254000000538469
0!
#254000000539652
0"
#254000000539719
1!
#254000000540969
0!
#254000000542219
1!
#254000000543469
0!
#254000000544719
1!
#254000000545969
0!
#254000000547219
1!
#254000000548469
0!
#254000000549652
1"
#254000000549719
1!
#254000000550969
0!
#254000000552152
0"
#254000000552219
1!
#254000000553469
0!
#254000000554719
1!
#254000000555969
0!
#254000000557219
1!
#254000000558469
0!
#254000000559719
1!
#254000000560969
0!
#254000000562219
1!
#254000000563469
0!
#254000000564719
1!
#254000000565969
0!
#254000000567219
1!
#254000000568469
0!
#254000000569719
1!
#254000000570969
0!
#254000000572152
1"
#254000000572219
1!
#254000000573469
0!
#254000000574652
0"
#254000000574719
1!
#254000000575969
0!
#254000000577152
1"
#254000000577219
1!
#254000000579094
0"
#254000000579161
0!
#254000000580411
1!
#254000000581661
0!
#254000000582844
1"
#254000000582911
1!
#254000000584161
0!
#254000000585344
0"
#254000000585411
1!
#254000000586661
0!
#254000000587911
1!
#254000000589161
0!
#254000000590411
1!
#254000000591661
0!
#254000000592911
1!
#254000000594161
0!
#254000000595411
1!
#254000000596661
0!
#254000000597844
1"
#254000000597911
1!
#254000000599161
0!
#254000000600344
0"
#254000000600411
1!
#254000000601661
0!
#254000000602911
1!
#254000000604161
0!
#254000000605411
1!
#254000000606661
0!
#254000000607844
1"
#254000000607911
1!
#254000000609161
0!
#254000000610411
1!
#254000000611661
0!
#254000000612844
0"
#254000000612911
1!
#254000000614161
0!
#254000000615411
1!
#254000000616661
0!
#254000000617911
1!
#254000000619161
0!
#254000000620344
1"
#254000000620411
1!
#254000000621661
0!
#254000000622844
0"
#254000000622911
1!
#254000000624161
0!
#254000000627911
1!
#254000000627978
1"
#254000000636815
0"
#254000000636882
0!
#254000000638132
1!
#254000000639382
0!
#254000000640565
1"
#254000000640632
1!
#254000000641882
0!
#254000000643065
0"
#254000000643132
1!
#254000000644382
0!
#254000000645632
1!
#254000000646882
0!
#254000000648132
1!
#254000000649382
0!
#254000000650632
1!
#254000000651882
0!
#254000000653132
1!
#254000000654382
0!
#254000000655632
1!
#254000000656882
0!
#254000000658132
1!
#254000000659382
0!
#254000000660632
1!
#254000000661882
0!
#254000000663065
1"
#254000000663132
1!
#254000000664382
0!
#254000000665632
1!
#254000000666882
0!
#254000000668065
0"
#254000000668132
1!
#254000000669382
0!
#254000000670632
1!
#254000000671882
0!
#254000000673065
1"
#254000000673132
1!
#254000000674382
0!
#254000000675632
1!
#254000000676882
0!
#254000000678132
1!
#254000000679382
0!
#254000000680565
0"
#254000000680632
1!
#254000000681882
0!
#254000000683132
1!
#254000000684382
0!
#254000000685632
1!
#254000000686882
0!
#254000000688132
1!
#254000000689382
0!
#254000000690632
1!
#254000000691882
0!
#254000000693132
1!
#254000000694382
0!
#254000000695632
1!
#254000000696882
0!
#254000000698132
1!
#254000000699382
0!
#254000000700565
1"
#254000000700632
1!
#254000000701882
0!
#254000000703065
0"
#254000000703132
1!
#254000000704382
0!
#254000000705565
1"
#254000000705632
1!
#254000000707507
0"
#254000000707574
0!
#254000000708824
1!
#254000000710074
0!
#254000000711257
1"
#254000000711324
1!
#254000000712574
0!
#254000000713757
0"
#254000000713824
1!
#254000000715074
0!
#254000000716324
1!
#254000000717574
0!
#254000000718824
1!
#254000000720074
0!
#254000000721324
1!
#254000000722574
0!
#254000000723824
1!
#254000000725074
0!
#254000000726257
1"
#254000000726324
1!
#254000000727574
0!
#254000000728757
0"
#254000000728824
1!
#254000000730074
0!
#254000000731324
1!
#254000000732574
0!
#254000000733757
1"
#254000000733824
1!
#254000000735074
0!
#254000000736257
0"
#254000000736324
1!
#254000000737574
0!
#254000000738824
1!
#254000000740074
0!
#254000000741324
1!
#254000000742574
0!
#254000000743824
1!
#254000000745074
0!
#254000000746257
1"
#254000000746324
1!
#254000000747574
0!
#254000000748757
0"
#254000000748824
1!
#254000000750074
0!
#254000000751324
1!
#254000000752574
0!
#254000000756324
1!
#254000000756391
1"
#254000000762658
0"
#254000000762725
0!
#254000000763975
1!
#254000000765225
0!
#254000000766408
1"
#254000000766475
1!
#254000000767725
0!
#254000000768908
0"
#254000000768975
1!
#254000000770225
0!
#254000000771475
1!
#254000000772725
0!
#254000000773975
1!
#254000000775225
0!
#254000000776475
1!
#254000000777725
0!
#254000000778975
1!
#254000000780225
0!
#254000000781475
1!
#254000000782725
0!
#254000000783975
1!
#254000000785225
0!
#254000000786475
1!
#254000000787725
0!
#254000000788908
1"
#254000000788975
1!
#254000000790225
0!
#254000000791475
1!
#254000000792725
0!
#254000000793908
0"
#254000000793975
1!
#254000000795225
0!
#254000000796475
1!
#254000000797725
0!
#254000000798908
1"
#254000000798975
1!
#254000000800225
0!
#254000000801475
1!
#254000000802725
0!
#254000000803908
0"
#254000000803975
1!
#254000000805225
0!
#254000000806475
1!
#254000000807725
0!
#254000000808975
1!
#254000000810225
0!
#254000000811475
1!
#254000000812725
0!
#254000000813975
1!
#254000000815225
0!
#254000000816475
1!
#254000000817725
0!
#254000000818975
1!
#254000000820225
0!
#254000000821475
1!
#254000000822725
0!
#254000000823975
1!
#254000000825225
0!
#254000000826408
1"
#254000000826475
1!
#254000000827725
0!
#254000000828908
0"
#254000000828975
1!
#254000000830225
0!
#254000000831408
1"
#254000000831475
1!
#254000000833350
0"
#254000000833417
0!
#254000000834667
1!
#254000000835917
0!
#254000000837100
1"
#254000000837167
1!
#254000000838417
0!
#254000000839600
0"
#254000000839667
1!
#254000000840917
0!
#254000000842167
1!
#254000000843417
0!
#254000000844667
1!
#254000000845917
0!
#254000000847167
1!
#254000000848417
0!
#254000000849667
1!
#254000000850917
0!
#254000000852100
1"
#254000000852167
1!
#254000000853417
0!
#254000000854600
0"
#254000000854667
1!
#254000000855917
0!
#254000000857167
1!
#254000000858417
0!
#254000000859600
1"
#254000000859667
1!
#254000000860917
0!
#254000000862100
0"
#254000000862167
1!
#254000000863417
0!
#254000000864600
1"
#254000000864667
1!
#254000000865917
0!
#254000000867167
1!
#254000000868417
0!
#254000000869667
1!
#254000000870917
0!
#254000000872100
0"
#254000000872167
1!
#254000000873417
0!
#254000000874600
1"
#254000000874667
1!
#254000000875917
0!
#254000000877100
0"
#254000000877167
1!
#254000000878417
0!
#254000000882167
1!
#254000000882234
1"
#254000000890955
0"
#254000000891022
0!
#254000000892272
1!
#254000000893522
0!
#254000000894705
1"
#254000000894772
1!
#254000000896022
0!
#254000000897205
0"
#254000000897272
1!
#254000000898522
0!
#254000000899772
1!
#254000000901022
0!
#254000000902272
1!
#254000000903522
0!
#254000000904772
1!
#254000000906022
0!
#254000000907272
1!
#254000000908522
0!
#254000000909772
1!
#254000000911022
0!
#254000000912272
1!
#254000000913522
0!
#254000000914772
1!
#254000000916022
0!
#254000000917205
1"
#254000000917272
1!
#254000000918522
0!
#254000000919772
1!
#254000000921022
0!
#254000000922205
0"
#254000000922272
1!
#254000000923522
0!
#254000000924772
1!
#254000000926022
0!
#254000000927205
1"
#254000000927272
1!
#254000000928522
0!
#254000000929705
0"
#254000000929772
1!
#254000000931022
0!
#254000000932272
1!
#254000000933522
0!
#254000000934772
1!
#254000000936022
0!
#254000000937272
1!
#254000000938522
0!
#254000000939772
1!
#254000000941022
0!
#254000000942272
1!
#254000000943522
0!
#254000000944772
1!
#254000000946022
0!
#254000000947272
1!
#254000000948522
0!
#254000000949772
1!
#254000000951022
0!
#254000000952272
1!
#254000000953522
0!
#254000000954705
1"
#254000000954772
1!
#254000000956022
0!
#254000000957205
0"
#254000000957272
1!
#254000000958522
0!
#254000000959705
1"
#254000000959772
1!
#254000000961647
0"
#254000000961714
0!
#254000000962964
1!
#254000000964214
0!
#254000000965397
1"
#254000000965464
1!
#254000000966714
0!
#254000000967897
0"
#254000000967964
1!
#254000000969214
0!
#254000000970464
1!
#254000000971714
0!
#254000000972964
1!
#254000000974214
0!
#254000000975464
1!
#254000000976714
0!
#254000000977964
1!
#254000000979214
0!
#254000000980397
1"
#254000000980464
1!
#254000000981714
0!
#254000000982897
0"
#254000000982964
1!
#254000000984214
0!
#254000000985464
1!
#254000000986714
0!
#254000000987964
1!
#254000000989214
0!
#254000000990464
1!
#254000000991714
0!
#254000000992897
1"
#254000000992964
1!
#254000000994214
0!
#254000000995397
0"
#254000000995464
1!
#254000000996714
0!
#254000000997964
1!
#254000000999214
0!
#254000001000397
1"
#254000001000464
1!
#254000001001714
0!
#254000001002897
0"
#254000001002964
1!
#254000001004214
0!
#254000001005464
1!
#254000001006714
0!
#254000001010464
1!
#254000001010531
1"
#254000001040628
0"
#254000001040695
0!
#254000001041945
1!
#254000001043195
0!
#254000001044378
1"
#254000001044445
1!
#254000001045695
0!
#254000001046878
0"
#254000001046945
1!
#254000001048195
0!
#254000001049445
1!
#254000001050695
0!
#254000001051945
1!
#254000001053195
0!
#254000001054445
1!
#254000001055695
0!
#254000001056945
1!
#254000001058195
0!
#254000001059445
1!
#254000001060695
0!
#254000001061945
1!
#254000001063195
0!
#254000001064445
1!
#254000001065695
0!
#254000001066878
1"
#254000001066945
1!
#254000001068195
0!
#254000001069445
1!
#254000001070695
0!
#254000001071878
0"
#254000001071945
1!
#254000001073195
0!
#254000001074445
1!
#254000001075695
0!
#254000001076945
1!
#254000001078195
0!
#254000001079378
1"
#254000001079445
1!
#254000001080695
0!
#254000001081878
0"
#254000001081945
1!
#254000001083195
0!
#254000001084445
1!
#254000001085695
0!
#254000001086945
1!
#254000001088195
0!
#254000001089445
1!
#254000001090695
0!
#254000001091945
1!
#254000001093195
0!
#254000001094445
1!
#254000001095695
0!
#254000001096945
1!
#254000001098195
0!
#254000001099445
1!
#254000001100695
0!
#254000001101945
1!
#254000001103195
0!
#254000001104378
1"
#254000001104445
1!
#254000001105695
0!
#254000001106878
0"
#254000001106945
1!
#254000001108195
0!
#254000001109378
1"
#254000001109445
1!
#254000001111320
0"
#254000001111387
0!
#254000001112637
1!
#254000001113887
0!
#254000001115070
1"
#254000001115137
1!
#254000001116387
0!
#254000001117570
0"
#254000001117637
1!
#254000001118887
0!
#254000001120137
1!
#254000001121387
0!
#254000001122637
1!
#254000001123887
0!
#254000001125137
1!
#254000001126387
0!
#254000001127637
1!
#254000001128887
0!
#254000001130070
1"
#254000001130137
1!
#254000001131387
0!
#254000001132570
0"
#254000001132637
1!
#254000001133887
0!
#254000001135137
1!
#254000001136387
0!
#254000001137637
1!
#254000001138887
0!
#254000001140070
1"
#254000001140137
1!
#254000001141387
0!
#254000001142637
1!
#254000001143887
0!
#254000001145070
0"
#254000001145137
1!
#254000001146387
0!
#254000001147570
1"
#254000001147637
1!
#254000001148887
0!
#254000001150137
1!
#254000001151387
0!
#254000001152637
1!
#254000001153887
0!
#254000001155070
0"
#254000001155137
1!
#254000001156387
0!
#254000001160137
1!
#254000001160204
1"
#254000001168694
0"
#254000001168761
0!
#254000001170011
1!
#254000001171261
0!
#254000001172444
1"
#254000001172511
1!
#254000001173761
0!
#254000001174944
0"
#254000001175011
1!
#254000001176261
0!
#254000001177511
1!
#254000001178761
0!
#254000001180011
1!
#254000001181261
0!
#254000001182511
1!
#254000001183761
0!
#254000001185011
1!
#254000001186261
0!
#254000001187511
1!
#254000001188761
0!
#254000001190011
1!
#254000001191261
0!
#254000001192511
1!
#254000001193761
0!
#254000001194944
1"
#254000001195011
1!
#254000001196261
0!
#254000001197511
1!
#254000001198761
0!
#254000001199944
0"
#254000001200011
1!
#254000001201261
0!
#254000001202511
1!
#254000001203761
0!
#254000001204944
1"
#254000001205011
1!
#254000001206261
0!
#254000001207444
0"
#254000001207511
1!
#254000001208761
0!
#254000001209944
1"
#254000001210011
1!
#254000001211261
0!
#254000001212444
0"
#254000001212511
1!
#254000001213761
0!
#254000001215011
1!
#254000001216261
0!
#254000001217511
1!
#254000001218761
0!
#254000001220011
1!
#254000001221261
0!
#254000001222511
1!
#254000001223761
0!
#254000001225011
1!
#254000001226261
0!
#254000001227511
1!
#254000001228761
0!
#254000001230011
1!
#254000001231261
0!
#254000001232444
1"
#254000001232511
1!
#254000001233761
0!
#254000001234944
0"
#254000001235011
1!
#254000001236261
0!
#254000001237444
1"
#254000001237511
1!
#254000001239386
0"
#254000001239453
0!
#254000001240703
1!
#254000001241953
0!
#254000001243136
1"
#254000001243203
1!
#254000001244453
0!
#254000001245636
0"
#254000001245703
1!
#254000001246953
0!
#254000001248203
1!
#254000001249453
0!
#254000001250703
1!
#254000001251953
0!
#254000001253203
1!
#254000001254453
0!
#254000001255703
1!
#254000001256953
0!
#254000001258136
1"
#254000001258203
1!
#254000001259453
0!
#254000001260636
0"
#254000001260703
1!
#254000001261953
0!
#254000001263203
1!
#254000001264453
0!
#254000001265703
1!
#254000001266953
0!
#254000001268203
1!
#254000001269453
0!
#254000001270703
1!
#254000001271953
0!
#254000001273203
1!
#254000001274453
0!
#254000001275636
1"
#254000001275703
1!
#254000001276953
0!
#254000001278203
1!
#254000001279453
0!
#254000001280703
1!
#254000001281953
0!
#254000001283136
0"
#254000001283203
1!
#254000001284453
0!
#254000001288203
1!
#254000001288270
1"
#254000001297455
0"
#254000001297522
0!
#254000001298772
1!
#254000001300022
0!
#254000001301205
1"
#254000001301272
1!
#254000001302522
0!
#254000001303705
0"
#254000001303772
1!
#254000001305022
0!
#254000001306272
1!
#254000001307522
0!
#254000001308772
1!
#254000001310022
0!
#254000001311272
1!
#254000001312522
0!
#254000001313772
1!
#254000001315022
0!
#254000001316272
1!
#254000001317522
0!
#254000001318772
1!
#254000001320022
0!
#254000001321272
1!
#254000001322522
0!
#254000001323705
1"
#254000001323772
1!
#254000001325022
0!
#254000001326272
1!
#254000001327522
0!
#254000001328705
0"
#254000001328772
1!
#254000001330022
0!
#254000001331272
1!
#254000001332522
0!
#254000001333772
1!
#254000001335022
0!
#254000001336205
1"
#254000001336272
1!
#254000001337522
0!
#254000001338772
1!
#254000001340022
0!
#254000001341205
0"
#254000001341272
1!
#254000001342522
0!
#254000001343772
1!
#254000001345022
0!
#254000001346272
1!
#254000001347522
0!
#254000001348772
1!
#254000001350022
0!
#254000001351272
1!
#254000001352522
0!
#254000001353772
1!
#254000001355022
0!
#254000001356272
1!
#254000001357522
0!
#254000001358772
1!
#254000001360022
0!
#254000001361205
1"
#254000001361272
1!
#254000001362522
0!
#254000001363705
0"
#254000001363772
1!
#254000001365022
0!
#254000001366205
1"
#254000001366272
1!
#254000001368147
0"
#254000001368214
0!
#254000001369464
1!
#254000001370714
0!
#254000001371897
1"
#254000001371964
1!
#254000001373214
0!
#254000001374397
0"
#254000001374464
1!
#254000001375714
0!
#254000001376964
1!
#254000001378214
0!
#254000001379464
1!
#254000001380714
0!
#254000001381964
1!
#254000001383214
0!
#254000001384464
1!
#254000001385714
0!
#254000001386897
1"
#254000001386964
1!
#254000001388214
0!
#254000001389397
0"
#254000001389464
1!
#254000001390714
0!
#254000001391964
1!
#254000001393214
0!
#254000001394464
1!
#254000001395714
0!
#254000001396897
1"
#254000001396964
1!
#254000001398214
0!
#254000001399464
1!
#254000001400714
0!
#254000001401897
0"
#254000001401964
1!
#254000001403214
0!
#254000001404397
1"
#254000001404464
1!
#254000001405714
0!
#254000001406964
1!
#254000001408214
0!
#254000001409397
0"
#254000001409464
1!
#254000001410714
0!
#254000001411964
1!
#254000001413214
0!
#254000001416964
1!
#254000001417031
1"
#254000001423356
0"
#254000001423423
0!
#254000001424673
1!
#254000001425923
0!
#254000001427106
1"
#254000001427173
1!
#254000001428423
0!
#254000001429606
0"
#254000001429673
1!
#254000001430923
0!
#254000001432173
1!
#254000001433423
0!
#254000001434673
1!
#254000001435923
0!
#254000001437173
1!
#254000001438423
0!
#254000001439673
1!
#254000001440923
0!
#254000001442173
1!
#254000001443423
0!
#254000001444673
1!
#254000001445923
0!
#254000001447173
1!
#254000001448423
0!
#254000001449606
1"
#254000001449673
1!
#254000001450923
0!
#254000001452173
1!
#254000001453423
0!
#254000001454606
0"
#254000001454673
1!
#254000001455923
0!
#254000001457173
1!
#254000001458423
0!
#254000001459673
1!
#254000001460923
0!
#254000001462173
1!
#254000001463423
0!
#254000001464673
1!
#254000001465923
0!
#254000001467173
1!
#254000001468423
0!
#254000001469673
1!
#254000001470923
0!
#254000001472173
1!
#254000001473423
0!
#254000001474673
1!
#254000001475923
0!
#254000001477173
1!
#254000001478423
0!
#254000001479673
1!
#254000001480923
0!
#254000001482173
1!
#254000001483423
0!
#254000001484673
1!
#254000001485923
0!
#254000001487106
1"
#254000001487173
1!
#254000001488423
0!
#254000001489606
0"
#254000001489673
1!
#254000001490923
0!
#254000001492106
1"
#254000001492173
1!
#254000001494048
0"
#254000001494115
0!
#254000001495365
1!
#254000001496615
0!
#254000001497798
1"
#254000001497865
1!
#254000001499115
0!
#254000001500298
0"
#254000001500365
1!
#254000001501615
0!
#254000001502865
1!
#254000001504115
0!
#254000001505365
1!
#254000001506615
0!
#254000001507865
1!
#254000001509115
0!
#254000001510365
1!
#254000001511615
0!
#254000001512798
1"
#254000001512865
1!
#254000001514115
0!
#254000001515298
0"
#254000001515365
1!
#254000001516615
0!
#254000001517865
1!
#254000001519115
0!
#254000001520365
1!
#254000001521615
0!
#254000001522798
1"
#254000001522865
1!
#254000001524115
0!
#254000001525298
0"
#254000001525365
1!
#254000001526615
0!
#254000001527865
1!
#254000001529115
0!
#254000001530365
1!
#254000001531615
0!
#254000001532865
1!
#254000001534115
0!
#254000001535365
1!
#254000001536615
0!
#254000001537865
1!
#254000001539115
0!
#254000001542865
1!
#254000001542932
1"
#254000001548756
0"
#254000001548823
0!
#254000001550073
1!
#254000001551323
0!
#254000001552506
1"
#254000001552573
1!
#254000001553823
0!
#254000001555006
0"
#254000001555073
1!
#254000001556323
0!
#254000001557573
1!
#254000001558823
0!
#254000001560073
1!
#254000001561323
0!
#254000001562573
1!
#254000001563823
0!
#254000001565073
1!
#254000001566323
0!
#254000001567573
1!
#254000001568823
0!
#254000001570073
1!
#254000001571323
0!
#254000001572573
1!
#254000001573823
0!
#254000001575006
1"
#254000001575073
1!
#254000001576323
0!
#254000001577573
1!
#254000001578823
0!
#254000001580006
0"
#254000001580073
1!
#254000001581323
0!
#254000001582573
1!
#254000001583823
0!
#254000001585073
1!
#254000001586323
0!
#254000001587573
1!
#254000001588823
0!
#254000001590006
1"
#254000001590073
1!
#254000001591323
0!
#254000001592506
0"
#254000001592573
1!
#254000001593823
0!
#254000001595073
1!
#254000001596323
0!
#254000001597573
1!
#254000001598823
0!
#254000001600073
1!
#254000001601323
0!
#254000001602573
1!
#254000001603823
0!
#254000001605073
1!
#254000001606323
0!
#254000001607573
1!
#254000001608823
0!
#254000001610073
1!
#254000001611323
0!
#254000001612506
1"
#254000001612573
1!
#254000001613823
0!
#254000001615006
0"
#254000001615073
1!
#254000001616323
0!
#254000001617506
1"
#254000001617573
1!
#254000001619448
0"
#254000001619515
0!
#254000001620765
1!
#254000001622015
0!
#254000001623198
1"
#254000001623265
1!
#254000001624515
0!
#254000001625698
0"
#254000001625765
1!
#254000001627015
0!
#254000001628265
1!
#254000001629515
0!
#254000001630765
1!
#254000001632015
0!
#254000001633265
1!
#254000001634515
0!
#254000001635765
1!
#254000001637015
0!
#254000001638198
1"
#254000001638265
1!
#254000001639515
0!
#254000001640698
0"
#254000001640765
1!
#254000001642015
0!
#254000001643265
1!
#254000001644515
0!
#254000001645765
1!
#254000001647015
0!
#254000001648198
1"
#254000001648265
1!
#254000001649515
0!
#254000001650765
1!
#254000001652015
0!
#254000001653198
0"
#254000001653265
1!
#254000001654515
0!
#254000001655765
1!
#254000001657015
0!
#254000001658265
1!
#254000001659515
0!
#254000001660698
1"
#254000001660765
1!
#254000001662015
0!
#254000001663198
0"
#254000001663265
1!
#254000001664515
0!
#254000001668265
1!
#254000001668332
1"
#254000001677061
0"
#254000001677128
0!
#254000001678378
1!
#254000001679628
0!
#254000001680811
1"
#254000001680878
1!
#254000001682128
0!
#254000001683311
0"
#254000001683378
1!
#254000001684628
0!
#254000001685878
1!
#254000001687128
0!
#254000001688378
1!
